💪 4005 R ile Büyük Veri Analitiği
…
---

## Yeni Veri Seti Oluşturma

-  6890 satır 1119 sütunlu veri seti
PISA_STU_2018'yı kullanarak yeni bir veri seti oluşturalım.

```r
PISA_STU_2018 %>% select(CNTSTUID,ST001D01T,ST004D01T,ESCS)
```

```
## # A tibble: 6,890 x 4
##    CNTSTUID     ST001D01T  ST004D01T      ESCS
##       <dbl>     <dbl+lbl>  <dbl+lbl> <dbl+lbl>
##  1 79200768 10 [Grade 10] 2 [Male]     -2.45  
##  2 79201064 10 [Grade 10] 2 [Male]     -2.10  
##  3 79201118 10 [Grade 10] 1 [Female]   -2.27  
##  4 79201275  9 [Grade 9]  2 [Male]      0.0324
##  5 79201481  9 [Grade 9]  2 [Male]     -0.0674
##  6 79201556 10 [Grade 10] 2 [Male]      0.398 
##  7 79201652 10 [Grade 10] 1 [Female]   -0.866 
##  8 79202033 10 [Grade 10] 2 [Male]     -0.158 
##  9 79202179 10 [Grade 10] 1 [Female]   -0.626 
## 10 79202278 10 [Grade 10] 2 [Male]     -2.28  
## # ... with 6,880 more rows
```
…
- Veri setinden dört değişken seçip yeni bir veri setine atama 

```r
df1 <- PISA_STU_2018 %>% select(CNTSTUID,ST001D01T,ST004D01T,ESCS)
```

- Yeni oluşan df1 veri setini ESCS (sosyaekonomik düzey) puanlarına göre sıralama

```r
arrange(df1,ESCS)
```

```
## # A tibble: 6,890 x 4
##    CNTSTUID     ST001D01T  ST004D01T      ESCS
##       <dbl>     <dbl+lbl>  <dbl+lbl> <dbl+lbl>
##  1 79201575 11 [Grade 11] 2 [Male]       -4.75
##  2 79205397 10 [Grade 10] 1 [Female]     -4.72
##  3 79200690  8 [Grade 8]  2 [Male]       -4.29
##  4 79201907 10 [Grade 10] 2 [Male]       -4.29
##  5 79206542 10 [Grade 10] 2 [Male]       -4.20
##  6 79200541 11 [Grade 11] 2 [Male]       -4.19
##  7 79204783 11 [Grade 11] 1 [Female]     -4.10
##  8 79201218 10 [Grade 10] 2 [Male]       -4.02
##  9 79202930 10 [Grade 10] 1 [Female]     -4.00
## 10 79203824 10 [Grade 10] 2 [Male]       -3.85
## # ... with 6,880 more rows
```

---
## **arrange()** fonksiyonu

- **desc()** fonksiyonu ile sıralama büyükten küçüğe de yapılabilir.

```r
arrange(df1,desc(ESCS))
```

```
## # A tibble: 6,890 x 4
##    CNTSTUID     ST001D01T  ST004D01T      ESCS
##       <dbl>     <dbl+lbl>  <dbl+lbl> <dbl+lbl>
##  1 79201409 10 [Grade 10] 2 [Male]        2.76
##  2 79207242 10 [Grade 10] 2 [Male]        2.62
##  3 79203361 10 [Grade 10] 2 [Male]        2.28
##  4 79206271 10 [Grade 10] 2 [Male]        2.18
##  5 79203677  9 [Grade 9]  1 [Female]      1.99
##  6 79200191  9 [Grade 9]  1 [Female]      1.92
##  7 79204883 10 [Grade 10] 2 [Male]        1.90
##  8 79206259 10 [Grade 10] 1 [Female]      1.90
##  9 79204227  9 [Grade 9]  2 [Male]        1.86
## 10 79203397  9 [Grade 9]  2 [Male]        1.86
## # ... with 6,880 more rows
```

---
## **select()** ve **arrange()**  fonksiyonu

Yaptığımız işlemleri pipe operatoru ile bağlayabilirsiniz.

```r
PISA_STU_2018 %>% 
  select(CNTSTUID,ST001D01T,ST004D01T,ESCS) %>%
  arrange(ESCS)
```

```
## # A tibble: 6,890 x 4
##    CNTSTUID     ST001D01T  ST004D01T      ESCS
##       <dbl>     <dbl+lbl>  <dbl+lbl> <dbl+lbl>
##  1 79201575 11 [Grade 11] 2 [Male]       -4.75
##  2 79205397 10 [Grade 10] 1 [Female]     -4.72
##  3 79200690  8 [Grade 8]  2 [Male]       -4.29
##  4 79201907 10 [Grade 10] 2 [Male]       -4.29
##  5 79206542 10 [Grade 10] 2 [Male]       -4.20
##  6 79200541 11 [Grade 11] 2 [Male]       -4.19
##  7 79204783 11 [Grade 11] 1 [Female]     -4.10
##  8 79201218 10 [Grade 10] 2 [Male]       -4.02
##  9 79202930 10 [Grade 10] 1 [Female]     -4.00
## 10 79203824 10 [Grade 10] 2 [Male]       -3.85
## # ... with 6,880 more rows
```
…
---
## **filter()** fonksiyonu

PISA verisinde anne eğitim düzeyi **ve ya** baba eğitim düzeyi lisansüstü olan öğrencilerin seçilmesi

```r
PISA_STU_2018 %>% filter(MISCED==6 | FISCED==6)
```

```
## # A tibble: 1,569 x 1,119
##       CNTRYID CNT       CNTSCHID CNTSTUID CYC   NatCen     STRATUM    SUBNATIO  
##     <dbl+lbl> <chr+lbl>    <dbl>    <dbl> <chr> <chr+lbl>  <chr+lbl>  <chr+lbl> 
##  1 792 [Turk~ TUR [Tur~ 79200001 79201275 07MS  079~ [Tur~ TUR~ [TUR~ 792~ [Tur~
##  2 792 [Turk~ TUR [Tur~ 79200001 79201556 07MS  079~ [Tur~ TUR~ [TUR~ 792~ [Tur~
##  3 792 [Turk~ TUR [Tur~ 79200001 79202343 07MS  079~ [Tur~ TUR~ [TUR~ 792~ [Tur~
##  4 792 [Turk~ TUR [Tur~ 79200001 79203553 07MS  079~ [Tur~ TUR~ [TUR~ 792~ [Tur~
##  5 792 [Turk~ TUR [Tur~ 79200001 79203843 07MS  079~ [Tur~ TUR~ [TUR~ 792~ [Tur~
##  6 792 [Turk~ TUR [Tur~ 79200001 79204714 07MS  079~ [Tur~ TUR~ [TUR~ 792~ [Tur~
##  7 792 [Turk~ TUR [Tur~ 79200002 79200971 07MS  079~ [Tur~ TUR~ [TUR~ 792~ [Tur~
##  8 792 [Turk~ TUR [Tur~ 79200002 79201796 07MS  079~ [Tur~ TUR~ [TUR~ 792~ [Tur~
##  9 792 [Turk~ TUR [Tur~ 79200002 79202442 07MS  079~ [Tur~ TUR~ [TUR~ 792~ [Tur~
## 10 792 [Turk~ TUR [Tur~ 79200002 79202928 07MS  079~ [Tur~ TUR~ [TUR~ 792~ [Tur~
## # ... with 1,559 more rows, and 1,111 more variables: OECD <dbl+lbl>,
## #   ADMINMODE <dbl+lbl>, LANGTEST_QQQ <dbl+lbl>, LANGTEST_COG <dbl+lbl>,
## #   LANGTEST_PAQ <dbl+lbl>, BOOKID <dbl+lbl>, ST001D01T <dbl+lbl>,
## #   ST003D02T <dbl+lbl>, ST003D03T <dbl+lbl>, ST004D01T <dbl+lbl>,
## #   ST005Q01TA <dbl+lbl>, ST006Q01TA <dbl+lbl>, ST006Q02TA <dbl+lbl>,
## #   ST006Q03TA <dbl+lbl>, ST006Q04TA <dbl+lbl>, ST007Q01TA <dbl+lbl>,
## #   ST008Q01TA <dbl+lbl>, ST008Q02TA <dbl+lbl>, ST008Q03TA <dbl+lbl>, ...
```
…
