ğŸ’ª 4005 R ile BÃ¼yÃ¼k Veri AnalitiÄŸi
…
???
siz de  SINIF ve CINSIYET e gÃ¶re daÄŸÄ±lÄ±mÄ± bulunuz?

---
## count() fonksiyonu

- GruplandÄ±rÄ±lmÄ±ÅŸ veride bellirli bir deÄŸiÅŸkene iliÅŸkin toplam almak istiyorsanÄ±z **count()** fonksiyonunun **wt()** argÃ¼manÄ±nÄ± kullanabilirsiniz.

```r
PISA_OGR_2018 %>% count(OKUL_TUR, wt=SES, sort=TRUE)
```

```
## # A tibble: 39 x 2
##    OKUL_TUR                                      n
##    <chr+lbl>                                 <dbl>
##  1 TUR0318 [Anadolu Imam Hatip Lisesi - A]   8.71 
##  2 TUR0108 [Anadolu Lisesi - A]             -0.522
##  3 TUR0305 [Sosyal Bilimler Lisesi - A]    -15.9  
##  4 TUR0302 [Fen Lisesi - A]                -16.4  
##  5 TUR0303 [Fen Lisesi - B]                -34.0  
##  6 TUR0304 [Fen Lisesi - C]                -34.2  
##  7 TUR0326 [Anadolu Guzel Sanatlar Lisesi] -38.2  
##  8 TUR0301 [Ortaokul]                      -49.4  
##  9 TUR0306 [Sosyal Bilimler Lisesi - B]    -65.7  
## 10 TUR0307 [Sosyal Bilimler Lisesi - C]    -77.0  
## # ... with 29 more rows
```
…
