ğŸ’ª 4005 R ile BÃ¼yÃ¼k Veri AnalitiÄŸi
…
---
## join 

- veri setinde eslestirme yapÄ±lmasÄ± istenilen deÄŸiÅŸkenin farklÄ± adlarÄ± oldugunda 

```r
left_join(miniOGR,miniSCH,by=c("OKULID"="CNTSCHID"))
```

```
## # A tibble: 6,890 x 12
##      OKULID OGRENCIID  CINSIYET  KITAPSAYISI  ST196Q02HA  ST196Q03HA  ST196Q04HA
##       <dbl>     <dbl> <dbl+lbl>    <dbl+lbl>   <dbl+lbl>   <dbl+lbl>   <dbl+lbl>
##  1 79200001  79200768 2 [Erkek] 2 [11-25 ki~ 3 [Biraz c~ 3 [Biraz c~ 4 [Bunu ko~
##  2 79200001  79201064 2 [Erkek] 3 [26-100 k~ 3 [Biraz c~ 3 [Biraz c~ 4 [Bunu ko~
##  3 79200001  79201118 1 [Kiz]   1 [0-10 kit~ 1 [Bunu ya~ 2 [Bunu te~ 3 [Biraz c~
##  4 79200001  79201275 2 [Erkek] 1 [0-10 kit~ 1 [Bunu ya~ 1 [Bunu ya~ 1 [Bunu ya~
##  5 79200001  79201481 2 [Erkek] 2 [11-25 ki~ 1 [Bunu ya~ 4 [Bunu ko~ 4 [Bunu ko~
##  6 79200001  79201556 2 [Erkek] 2 [11-25 ki~ 1 [Bunu ya~ 1 [Bunu ya~ 1 [Bunu ya~
##  7 79200001  79201652 1 [Kiz]   3 [26-100 k~ 3 [Biraz c~ 3 [Biraz c~ 3 [Biraz c~
##  8 79200001  79202033 2 [Erkek] 3 [26-100 k~ 3 [Biraz c~ 2 [Bunu te~ 4 [Bunu ko~
##  9 79200001  79202179 1 [Kiz]   3 [26-100 k~ 3 [Biraz c~ 1 [Bunu ya~ 4 [Bunu ko~
## 10 79200001  79202278 2 [Erkek] 4 [101-200 ~ 3 [Biraz c~ 3 [Biraz c~ 1 [Bunu ya~
## # ... with 6,880 more rows, and 5 more variables: ST196Q05HA <dbl+lbl>,
## #   ST196Q06HA <dbl+lbl>, ST196Q07HA <dbl+lbl>, okulbuyukluk <dbl+lbl>,
## #   sinifbuyuk <dbl+lbl>
```
…
